{"count":19208,"page":1,"page_count":5,"page_size":5,"products":[{"brands":"Oatly","categories_tags":["en:beverages-and-beverages-preparations","en:plant-based-foods-and-beverages","en:beverages","en:plant-based-foods","en:cereals-and-potatoes","en:dairy-substitutes","en:cereals-and-their-products","en:milk-substitutes","en:plant-based-beverages","en:plant-based-milk-alternatives","en:cereal-based-drinks","en:oat-based-drinks"],"popularity_key":24990000064,"product_name":"iKaffe","product_name_fi":"iKaffe","product_name_sv":"Oatly! ikaffe"},{"brands":"Vaasan, Ruispalat","categories_tags":["en:plant-based-foods-and-beverages","en:plant-based-foods","en:cereals-and-potatoes","en:cereals-and-their-products","en:breads","en:rye-and-wheat-breads","en:sliced-breads"],"popularity_key":24950000020,"product_name":"Ruispalat Original","product_name_fi":"Ruispalat Original","product_name_sv":"Ruispalat Original"},{"brands":"Kotimaista","categories_tags":["en:farming-products","en:eggs","en:chicken-eggs"],"popularity_key":2,"product_name":"Isot Vapaan Kanan Munat","product_name_fi":"Isot Vapaan Kanan Munat"},{"brands":"Fazer","categories_tags":["en:plant-based-foods-and-beverages","en:plant-based-foods","en:cereals-and-potatoes","en:breads","en:rye-breads"],"popularity_key":23900000018,"product_name":"Puikula","product_name_fi":"Puikula"},{"brands":"Valio","categories_tags":["en:dairies","en:fermented-foods","en:fermented-milk-products","en:cheeses","en:cream-cheeses"],"popularity_key":4,"product_name":"Oltermanni 17%","product_name_fi":"Oltermanni 17%","product_name_sv":"Valio Oltermanni 17%"}],"skip":0}
